%YAML 1.1
%TAG !u! tag:unity3d.com,2011:
--- !u!114 &11400000
MonoBehaviour:
  m_ObjectHideFlags: 0
  m_CorrespondingSourceObject: {fileID: 0}
  m_PrefabInstance: {fileID: 0}
  m_PrefabAsset: {fileID: 0}
  m_GameObject: {fileID: 0}
  m_Enabled: 1
  m_EditorHideFlags: 0
  m_Script: {fileID: 11500000, guid: 5bf7c34a0dc4e6348bea04faa70406ee, type: 3}
  m_Name: SpeakingBubble
  m_EditorClassIdentifier: 
  m_Labels:
  - m_Name: Content
    m_Hash: 829950261
    m_CategoryList:
    - m_Name: thirsty
      m_Hash: 12941369
      m_Sprite: {fileID: 21300000, guid: 467151a6267ba19488d4a9001fac950d, type: 3}
    - m_Name: hungry
      m_Hash: -957952942
      m_Sprite: {fileID: 21300000, guid: ee65eab1fae038744a692b4f580e9ebb, type: 3}
    - m_Name: default
      m_Hash: -480378657
      m_Sprite: {fileID: 10917, guid: 0000000000000000f000000000000000, type: 0}
    - m_Name: trophy
      m_Hash: 288029417
      m_Sprite: {fileID: 21300000, guid: fb2711a051e68954e844719e827c72c3, type: 3}
