%YAML 1.1
%TAG !u! tag:unity3d.com,2011:
--- !u!1045 &1
EditorBuildSettings:
  m_ObjectHideFlags: 0
  serializedVersion: 2
  m_Scenes:
  - enabled: 1
    path: Assets/Scenes/MainScene.unity
    guid: 843941621802992408ba13cf815c602f
  - enabled: 1
    path: Assets/Scenes/NewGameScene.unity
    guid: 210bd418ecc3063428d951fdd993a925
  m_configObjects: {}
